{
  "id": "d27fba0d-2d6d-477d-ad73-75ee87c47b98",
  "name": "ThunderCAT - CI",
  "values": [
    {
      "key": "THUNDERCAT_URL",
      "value": "docker",
      "enabled": true
    }
  ],
  "_postman_variable_scope": "environment",
  "_postman_exported_at": "2020-02-18T02:30:15.953Z",
  "_postman_exported_using": "Postman/7.0.7"
}
